test.vcd
$comment Generated by nMigen $end
$date 2020-08-25 14:25:10.832974 $end
$timescale 100 ps $end
$scope module top $end
$var wire 16 0 ncount $end
$var wire 16 1 count $end
$var wire 1 2 clk $end
$var wire 1 3 rst $end
$upscope $end
$enddefinitions $end
#0
$dumpvars
b1111111111111111 0
b0 1
02
03
$end
#5000
12
b1 1
b1111111111111110 0
#10000
02
#15000
12
b10 1
b1111111111111101 0
#20000
02
#24999
12
b11 1
b1111111111111100 0
#29999
02
#34999
12
b100 1
b1111111111111011 0
#40000
02
#45000
12
b101 1
b1111111111111010 0
#50000
02
#55000
12
b110 1
b1111111111111001 0
#60000
02
#65000
12
b111 1
b1111111111111000 0
#70000
02
#75000
12
b1000 1
b1111111111110111 0
#80000
02
#85000
12
b1001 1
b1111111111110110 0
#90000
02
#95000
12
b1010 1
b1111111111110101 0
#100000
02
#105000
12
b1011 1
b1111111111110100 0
#110000
02
#115000
12
b1100 1
b1111111111110011 0
#120000
02
#125000
12
b1101 1
b1111111111110010 0
#130000
02
#135000
12
b1110 1
b1111111111110001 0
#140000
02
#145000
12
b1111 1
b1111111111110000 0
#150000
02
#155000
12
b10000 1
b1111111111101111 0
#160000
02
#165000
12
b10001 1
b1111111111101110 0
#170000
02
#174999
12
b10010 1
b1111111111101101 0
#179999
02
#184999
12
b10011 1
b1111111111101100 0
#189999
02
#194999
12
b10100 1
b1111111111101011 0
#199999
02
#204999
12
b10101 1
b1111111111101010 0
#209999
02
#214999
12
b10110 1
b1111111111101001 0
#219999
02
#224999
12
b10111 1
b1111111111101000 0
#229999
02
#234999
12
b11000 1
b1111111111100111 0
#239999
02
#244999
12
b11001 1
b1111111111100110 0
#249999
02
#254999
12
b11010 1
b1111111111100101 0
#259999
02
#264999
12
b11011 1
b1111111111100100 0
#269999
02
#274999
12
b11100 1
b1111111111100011 0
#279999
02
#284999
12
b11101 1
b1111111111100010 0
#289999
02
#294999
12
b11110 1
b1111111111100001 0
#299999
02
#304999
12
b11111 1
b1111111111100000 0
#309999
02
#314999
12
b100000 1
b1111111111011111 0
#319999
02
#324999
12
b100001 1
b1111111111011110 0
#329999
02
#334999
12
b100010 1
b1111111111011101 0
#339999
02
#344999
12
b100011 1
b1111111111011100 0
#349999
02
#354999
12
b100100 1
b1111111111011011 0
#359999
02
#364999
12
b100101 1
b1111111111011010 0
#369999
02
#374999
12
b100110 1
b1111111111011001 0
#379999
02
#384999
12
b100111 1
b1111111111011000 0
#389999
02
#394999
12
b101000 1
b1111111111010111 0
#399999
02
#404999
12
b101001 1
b1111111111010110 0
#409999
02
#414999
12
b101010 1
b1111111111010101 0
#419999
02
#424999
12
b0 1
b1111111111111111 0
#429999
02
#434999
12
b1 1
b1111111111111110 0
#439999
02
#444999
12
b10 1
b1111111111111101 0
#449999
02
#454999
12
b11 1
b1111111111111100 0
#459999
02
#464999
12
b100 1
b1111111111111011 0
#469999
02
#474999
12
b101 1
b1111111111111010 0
#479999
02
#484999
12
b110 1
b1111111111111001 0
#489999
02
#494999
12
b111 1
b1111111111111000 0
#499999
02
#504999
12
b1000 1
b1111111111110111 0
